Introduction to crosswalkr • crosswalkr
…
Encoding

These same example files have inconsistent encodings for state: one
uses two-letter abbreviations, another the FIPS code, and another the
full name. Again, instead of fixing each one at a time, a separate
crosswalk for encoding these values could be used. The
crosswalkr package includes a state-level crosswalk,
stcrosswalk:

data(stcrosswalk)
stcrosswalk

## # A tibble: 51 × 7
##    stfips stabbr stname               cenreg cenregnm  cendiv cendivnm          
##     <int> <chr>  <chr>                 <int> <chr>      <int> <chr>             
##  1      1 AL     Alabama                   3 South          6 East South Central
##  2      2 AK     Alaska                    4 West           9 Pacific           
##  3      4 AZ     Arizona                   4 West           8 Mountain          
##  4      5 AR     Arkansas                  3 South          7 West South Central
##  5      6 CA     California                4 West           9 Pacific           
##  6      8 CO     Colorado                  4 West           8 Mountain          
##  7      9 CT     Connecticut               1 Northeast      1 New England       
##  8     10 DE     Delaware                  3 South          5 South Atlantic    
##  9     11 DC     District of Columbia      3 South          5 South Atlantic    
## 10     12 FL     Florida                   3 South          5 South Atlantic    
## # ℹ 41 more rows
…
